RISCV_PROCESSOR.sim/sim_1/behav/xsim/simulate.log
Time resolution is 1 ps
WARNING: File riscreg.txt referenced from process on K:/Vivado/RISCV_PROCESSOR/RISCV_PROCESSOR.srcs/sources_1/new/regfile.v at line 33 cannot be opened for reading. Please ensure that this file is available in the current working directory or parent directory of xsim.dir location specified via -xsimdir switch.
Time: 0 | Read: a1=0 (rd1=00000000), a2=5 (rd2=xxxxxxxx)
Time: 30000 | Read: a1=0 (rd1=00000000), a2=12 (rd2=xxxxxxxx)
Time: 50000 | Read: a1=3 (rd1=0000000c), a2=23 (rd2=xxxxxxxx)
Time: 70000 | Read: a1=7 (rd1=00000003), a2=2 (rd2=00000005)
Time: 90000 | Read: a1=3 (rd1=0000000c), a2=4 (rd2=00000007)
Time: 110000 | Read: a1=5 (rd1=00000004), a2=4 (rd2=00000007)
Time: 130000 | Read: a1=5 (rd1=0000000b), a2=7 (rd2=00000007)
Time: 130000 | Read: a1=5 (rd1=0000000b), a2=7 (rd2=00000003)
Time: 150000 | Read: a1=3 (rd1=0000000c), a2=4 (rd2=00000007)
Time: 170000 | Read: a1=4 (rd1=0000000c), a2=0 (rd2=00000000)
Time: 170000 | Read: a1=4 (rd1=00000000), a2=0 (rd2=00000000)
Time: 190000 | Read: a1=7 (rd1=00000003), a2=2 (rd2=00000005)
Time: 210000 | Read: a1=4 (rd1=00000001), a2=5 (rd2=0000000b)
Time: 230000 | Read: a1=7 (rd1=0000000c), a2=2 (rd2=00000005)
Time: 250000 | Read: a1=3 (rd1=00000007), a2=7 (rd2=00000005)
Time: 250000 | Read: a1=3 (rd1=0000000c), a2=7 (rd2=00000007)
Memory Write: Address = 00000060, Data = 00000007
Time: 270000 | Read: a1=0 (rd1=00000000), a2=0 (rd2=00000000)
Time: 290000 | Read: a1=2 (rd1=00000007), a2=5 (rd2=0000000b)
Time: 310000 | Read: a1=0 (rd1=00000000), a2=8 (rd2=xxxxxxxx)
Time: 330000 | Read: a1=2 (rd1=00000007), a2=9 (rd2=00000012)
Time: 350000 | Read: a1=3 (rd1=00000019), a2=2 (rd2=00000012)
Time: 350000 | Read: a1=3 (rd1=00000044), a2=2 (rd2=00000019)
Memory Write: Address = 00000064, Data = 00000019
Time: 370000 | Read: a1=2 (rd1=00000019), a2=2 (rd2=00000019)
$finish called at time : 525 ns : File "K:/Vivado/RISCV_PROCESSOR/RISCV_PROCESSOR.srcs/sim_1/new/testbench.v" Line 59
